…
Centroid to Forage Attempt Point
================================

``` r
ControidToForage_Data <- VidSync_Test_Data %>% 
  filter(!grepl("Surface_Shots.*", objects)) %>%
  filter(!grepl("^Length.*", event)) 
ControidToForage_Data
```

    ## # A tibble: 298 x 9
    ##    subsample fish_ID species  time_sec     X     Y     Z objects    event 
    ##        <dbl>   <dbl> <chr>       <dbl> <dbl> <dbl> <dbl> <chr>      <chr> 
    ##  1         1       1 Okisutch     450.  45.8  18.3  19.5 Subsample… Drift…
    ##  2         1       1 Okisutch     453.  45.5  20.5  19.7 Subsample… Drift…
    ##  3         1       1 Okisutch     456.  51.0  23.2  20.9 Subsample… Drift…
    ##  4         1       1 Okisutch     459.  52.1  21.0  18.1 Subsample… Surfa…
    ##  5         1       1 Okisutch     462.  47.7  19.5  21.3 Subsample… Drift…
    ##  6         1       1 Okisutch     465.  54.7  22.1  21.8 Subsample… Drift…
    ##  7         1       1 Okisutch     468.  54.4  21.7  19.5 Subsample… Drift…
    ##  8         1       1 Okisutch     471.  45.2  21.0  22.5 Subsample… Drift…
    ##  9         1       1 Okisutch     474.  48.0  18.7  21.9 Subsample… Drift…
    ## 10         1       1 Okisutch     477.  39.4  22.2  21.4 Subsample… Drift…
    ## # ... with 288 more rows
…
